<svg xmlns="http://www.w3.org/2000/svg" xmlns:xlink="http://www.w3.org/1999/xlink" width="902" height="136" viewBox="0 0 902 136">
    <defs>
        <path id="a" d="M0 0h904v136H0z"/>
        <linearGradient id="b" x1="49.424%" x2="49.424%" y1="-6.423%" y2="80.61%">
            <stop offset="0%" stop-color="#282423"/>
            <stop offset="71.234%" stop-color="#3A3838"/>
            <stop offset="100%" stop-color="#565151"/>
            <stop offset="100%" stop-color="#3A3838" stop-opacity="0"/>
        </linearGradient>
    </defs>
    <g fill="none" fill-rule="evenodd" transform="translate(-2)">
        <mask id="c" fill="#fff">
            <use xlink:href="#a"/>
        </mask>
        <path fill="url(#b)" fill-rule="nonzero" d="M752.815 46.251c2.742 0 5.439.182 8.091.546 2.653.364 5.126.849 7.421 1.455 2.295.606 4.321 1.303 6.08 2.09 1.758.789 3.144 1.638 4.157 2.547h26.106v7.82h-17.344c1.728 2.484 3.144 5.318 4.246 8.5 1.103 3.183 1.654 6.32 1.654 9.411 0 4.85-1.043 9.244-3.129 13.184-2.086 3.94-4.992 7.334-8.717 10.183-3.725 2.85-8.18 5.047-13.366 6.592-5.185 1.546-10.907 2.319-17.166 2.319a47.67 47.67 0 0 1-7.108-.546c-2.414-.363-4.515-.848-6.303-1.455a21.303 21.303 0 0 0-4.38 5.047c-1.193 1.91-1.789 3.834-1.789 5.773 0 1.88.999 3.364 2.995 4.456 1.997 1.09 4.843 1.727 8.539 1.909l33.795 1.546c5.424.242 9.939.894 13.545 1.954 3.606 1.061 6.482 2.486 8.628 4.274 2.145 1.788 3.665 3.894 4.56 6.319.893 2.425 1.34 5.152 1.34 8.183 0 5.395-1.236 10.29-3.71 14.684-2.474 4.395-6.035 8.138-10.684 11.23-4.65 3.09-10.326 5.485-17.032 7.182-6.705 1.697-14.29 2.546-22.753 2.546-7.57 0-14.186-.455-19.848-1.364-5.663-.91-10.372-2.197-14.127-3.864-3.755-1.667-6.556-3.667-8.404-6.001-1.847-2.334-2.771-4.955-2.771-7.865 0-2.546.626-4.985 1.877-7.32 1.252-2.333 2.861-4.576 4.828-6.728a68.276 68.276 0 0 1 6.527-6.228c2.384-2 4.738-3.91 7.063-5.728a31.26 31.26 0 0 1-4.694-1.955c-1.46-.757-2.727-1.621-3.8-2.591-1.073-.97-1.907-2.016-2.503-3.137a7.54 7.54 0 0 1-.894-3.591c0-1.88.492-3.834 1.475-5.865.984-2.03 2.325-3.97 4.023-5.819 1.699-1.849 3.666-3.546 5.901-5.092a30.565 30.565 0 0 1 7.197-3.682c-6.139-2.667-10.952-6.38-14.439-11.138-3.487-4.759-5.23-10.229-5.23-16.412 0-4.546 1.028-8.85 3.084-12.91 2.057-4.062 4.903-7.608 8.539-10.639 3.636-3.03 7.882-5.425 12.74-7.183 4.858-1.758 10.118-2.637 15.78-2.637zm-21.997 93.509a19.933 19.933 0 0 0-3.622 3.543 24.684 24.684 0 0 0-2.626 4.104 20.503 20.503 0 0 0-1.63 4.337c-.362 1.46-.543 2.844-.543 4.15 0 2.114.725 4.134 2.173 6.062 1.45 1.927 3.622 3.637 6.52 5.129 2.897 1.492 6.534 2.673 10.91 3.544 4.377.87 9.462 1.305 15.257 1.305 6.157 0 11.665-.497 16.524-1.492 4.86-.995 8.994-2.316 12.405-3.963 3.41-1.648 6.006-3.482 7.787-5.503 1.78-2.02 2.67-4.056 2.67-6.108 0-2.114-.527-3.948-1.584-5.503-1.056-1.554-2.58-2.829-4.572-3.823-1.992-.995-4.407-1.741-7.244-2.239-2.66-.466-5.638-.714-8.934-.743l-.664-.003c-4.466 0-8.963-.108-13.49-.326-4.18-.2-8.101-.428-11.766-.682l-.91-.064-1.45-.106-1.403-.11c-2.531-.203-4.835-.42-6.91-.653l-3.31-.389-1.805-.225c-.713-.092-1.308-.172-1.783-.242zM215.716 0v140.773h-18.122v-9.015a47.301 47.301 0 0 1-6.818 4.599 49.944 49.944 0 0 1-7.67 3.46 55.311 55.311 0 0 1-8.03 2.185 41.878 41.878 0 0 1-7.894.774c-5.383 0-10.422-1.275-15.117-3.824-4.695-2.55-8.791-5.98-12.29-10.29-3.499-4.31-6.265-9.333-8.299-15.07-2.033-5.736-3.05-11.791-3.05-18.165 0-6.313 1.271-12.445 3.813-18.394 2.542-5.949 5.996-11.245 10.362-15.889s9.464-8.362 15.296-11.154c5.83-2.793 12.066-4.189 18.704-4.189 4.486 0 8.389.79 11.708 2.368 3.32 1.578 6.414 3.672 9.285 6.283V5.282L210.423 0h5.293zm162.169 46.251c6.027 0 11.09.596 15.189 1.786 4.098 1.19 7.383 2.854 9.854 4.991a17.79 17.79 0 0 1 5.29 7.83c1.054 3.083 1.582 6.487 1.582 10.21v57.878c0 2.87.828 5.418 2.486 7.647 1.657 2.228 3.692 3.953 6.102 5.174h-18.443c-2.411-1.221-4.445-2.946-6.103-5.174-1.657-2.229-2.486-4.778-2.486-7.647a146.981 146.981 0 0 0-6.374 5.128 47.761 47.761 0 0 1-6.78 4.808c-2.442 1.435-5.154 2.61-8.138 3.526-2.983.916-6.434 1.373-10.352 1.373-3.616 0-6.886-.595-9.81-1.785-2.922-1.19-5.394-2.824-7.413-4.9-2.019-2.076-3.586-4.548-4.701-7.418-1.115-2.869-1.673-5.952-1.673-9.249 0-4.03.784-7.662 2.351-10.898 1.567-3.235 3.722-6.12 6.464-8.654 2.743-2.533 5.922-4.792 9.539-6.776 3.616-1.985 7.474-3.755 11.572-5.312a150.168 150.168 0 0 1 12.658-4.167c4.34-1.22 8.558-2.35 12.657-3.388v-5.861c0-4.274-.301-7.876-.904-10.806-.603-2.93-1.537-5.296-2.803-7.097-1.266-1.801-2.878-3.083-4.837-3.847-1.959-.763-4.294-1.144-7.007-1.144-2.591 0-4.972.519-7.142 1.556a19.462 19.462 0 0 0-5.741 4.167c-1.658 1.74-3.014 3.785-4.068 6.136a27.195 27.195 0 0 0-2.125 7.463h-16.816c.482-4.029 1.853-7.631 4.113-10.806 2.26-3.174 5.108-5.845 8.544-8.013 3.436-2.167 7.338-3.83 11.708-4.99 4.37-1.16 8.905-1.74 13.607-1.74zm194.438-30.164v31.878h20.67v7.97h-20.67v66.045c0 1.405.257 2.718.771 3.939a10.45 10.45 0 0 0 2.085 3.206 9.418 9.418 0 0 0 3.128 2.153c1.208.519 2.538.778 3.988.778 2.055 0 3.929-.519 5.62-1.557a17.933 17.933 0 0 0 4.443-3.847l4.623 3.114c-2.538 4.336-5.832 7.756-9.881 10.26-4.05 2.504-9.065 3.755-15.048 3.755-3.083 0-5.772-.534-8.069-1.603-2.296-1.068-4.185-2.564-5.665-4.488-1.481-1.924-2.584-4.214-3.31-6.87-.724-2.657-1.087-5.603-1.087-8.84V55.935h-16.136v-3.481l16.136-4.489V21.31l13.145-5.222h5.257zm84.487 30.164c6.028 0 11.09.596 15.19 1.786 4.098 1.19 7.383 2.854 9.854 4.991a17.79 17.79 0 0 1 5.289 7.83c1.055 3.083 1.582 6.487 1.582 10.21v57.878c0 2.87.829 5.418 2.486 7.647 1.658 2.228 3.692 3.953 6.103 5.174H678.87c-2.41-1.221-4.445-2.946-6.102-5.174-1.658-2.229-2.486-4.778-2.486-7.647a146.982 146.982 0 0 0-6.374 5.128 47.761 47.761 0 0 1-6.781 4.808c-2.441 1.435-5.153 2.61-8.137 3.526-2.984.916-6.434 1.373-10.352 1.373-3.616 0-6.886-.595-9.81-1.785-2.923-1.19-5.394-2.824-7.413-4.9-2.02-2.076-3.586-4.548-4.701-7.418-1.115-2.869-1.673-5.952-1.673-9.249 0-4.03.784-7.662 2.35-10.898 1.568-3.235 3.723-6.12 6.465-8.654 2.742-2.533 5.922-4.792 9.538-6.776 3.617-1.985 7.474-3.755 11.573-5.312a150.168 150.168 0 0 1 12.657-4.167c4.34-1.22 8.559-2.35 12.658-3.388v-5.861c0-4.274-.302-7.876-.905-10.806-.602-2.93-1.537-5.296-2.802-7.097-1.266-1.801-2.878-3.083-4.837-3.847-1.96-.763-4.295-1.144-7.007-1.144-2.592 0-4.973.519-7.142 1.556a19.462 19.462 0 0 0-5.741 4.167c-1.658 1.74-3.014 3.785-4.069 6.136a27.195 27.195 0 0 0-2.124 7.463h-16.817c.482-4.029 1.854-7.631 4.114-10.806 2.26-3.174 5.108-5.845 8.544-8.013 3.435-2.167 7.338-3.83 11.708-4.99 4.37-1.16 8.905-1.74 13.606-1.74zm203.939 0c5.97 0 11.462 1.084 16.477 3.251 5.014 2.168 9.327 5.068 12.939 8.7a39.231 39.231 0 0 1 8.417 12.592c2 4.762 3 9.738 3 14.927h-68.324c0 6.289.791 12.119 2.373 17.492 1.582 5.372 3.806 10.012 6.671 13.92 2.866 3.907 6.269 6.96 10.209 9.157 3.94 2.198 8.268 3.297 12.984 3.297 3.94 0 7.73-.656 11.372-1.969 3.642-1.313 6.94-3.037 9.895-5.174 2.955-2.137 5.478-4.579 7.567-7.326 2.09-2.748 3.552-5.587 4.388-8.517l5.283 2.381c-1.313 4.823-3.433 9.34-6.358 13.553-2.925 4.213-6.343 7.891-10.253 11.036a49.507 49.507 0 0 1-12.76 7.463c-4.597 1.832-9.253 2.747-13.97 2.747-6.208 0-12.044-1.19-17.506-3.571-5.462-2.381-10.223-5.617-14.283-9.707-4.06-4.09-7.268-8.899-9.626-14.424-2.358-5.525-3.537-11.401-3.537-17.628 0-7.51 1.075-14.454 3.224-20.834 2.149-6.38 5.193-11.89 9.133-16.53 3.94-4.64 8.672-8.273 14.194-10.898s11.685-3.938 18.491-3.938zm-607.794 2.011l32.595 70.771 31.245-70.77h8.284l-41.51 94.513h-6.303l-43.49-94.514h19.179zM62.383 17.092l56.01 123.673H98.017l-18.131-40.312H28.813l-18.76 40.312H0L57.356 17.093h5.027zm395.227 29.16v18.757c5.516-6.283 11.24-10.98 17.172-14.09 5.932-3.112 11.953-4.668 18.062-4.668 3.204 0 6.184.725 8.943 2.175 2.758 1.45 5.175 3.444 7.251 5.98 2.076 2.538 3.708 5.513 4.894 8.927 1.186 3.413 1.78 7.053 1.78 10.92v66.512h-18.063V77.424c0-3.081-.356-5.785-1.068-8.11-.711-2.326-1.72-4.275-3.025-5.845-1.305-1.571-2.832-2.764-4.582-3.58-1.75-.815-3.693-1.223-5.828-1.223-1.898 0-3.915.332-6.05.997-2.136.664-4.316 1.585-6.54 2.764a51.687 51.687 0 0 0-6.629 4.213 59.32 59.32 0 0 0-6.317 5.437v68.688h-18.152V51.417l12.991-5.166h5.16zm-281.822 6.032c-3.661 0-7.083.915-10.264 2.745-3.182 1.83-5.958 4.408-8.33 7.733-2.37 3.325-4.246 7.29-5.627 11.896-1.38 4.606-2.07 9.685-2.07 15.237 0 5.978.75 11.56 2.25 16.746 1.5 5.186 3.557 9.715 6.168 13.59 2.611 3.873 5.673 6.923 9.184 9.15 3.512 2.227 7.279 3.34 11.3 3.34 1.922 0 3.858-.259 5.808-.778a28.143 28.143 0 0 0 5.538-2.104 32.491 32.491 0 0 0 4.907-3.066c1.531-1.159 2.867-2.38 4.007-3.66V76.9c0-3.66-.675-7-2.026-10.02-1.35-3.02-3.106-5.613-5.267-7.778-2.161-2.166-4.607-3.844-7.339-5.033-2.73-1.19-5.477-1.785-8.239-1.785zm214.507 35.191a151.658 151.658 0 0 0-8.28 2.931 93.09 93.09 0 0 0-8.37 3.71 88.35 88.35 0 0 0-7.826 4.442c-2.487 1.587-4.67 3.297-6.55 5.129-1.881 1.832-3.367 3.755-4.46 5.77-1.091 2.015-1.637 4.122-1.637 6.32 0 2.32.425 4.503 1.274 6.549.85 2.045 1.971 3.847 3.366 5.404a15.59 15.59 0 0 0 4.823 3.663c1.82.886 3.7 1.328 5.641 1.328 2.062 0 4.034-.274 5.914-.824 1.88-.55 3.7-1.298 5.46-2.244a54.774 54.774 0 0 0 5.277-3.251 132.13 132.13 0 0 0 5.368-3.939V87.475zm279.93 0a151.658 151.658 0 0 0-8.28 2.931 93.09 93.09 0 0 0-8.372 3.71 88.35 88.35 0 0 0-7.825 4.442c-2.487 1.587-4.67 3.297-6.55 5.129-1.881 1.832-3.367 3.755-4.46 5.77-1.091 2.015-1.637 4.122-1.637 6.32 0 2.32.425 4.503 1.274 6.549.85 2.045 1.971 3.847 3.366 5.404a15.59 15.59 0 0 0 4.823 3.663c1.82.886 3.7 1.328 5.641 1.328 2.062 0 4.034-.274 5.914-.824 1.88-.55 3.7-1.298 5.46-2.244a54.775 54.775 0 0 0 5.277-3.251 132.13 132.13 0 0 0 5.368-3.939V87.475zm80.624-35.19c-3.006 0-5.614.628-7.824 1.887-2.21 1.258-4.022 3.011-5.436 5.259-1.415 2.247-2.46 4.884-3.138 7.91-.678 3.027-1.017 6.278-1.017 9.753 0 4.136.5 8 1.503 11.597 1.002 3.595 2.416 6.727 4.243 9.393 1.827 2.667 4.007 4.75 6.541 6.248 2.535 1.498 5.334 2.247 8.398 2.247 2.534 0 4.98-.584 7.337-1.753 2.358-1.168 4.435-2.771 6.233-4.809 1.797-2.037 3.226-4.42 4.287-7.146 1.06-2.727 1.591-5.679 1.591-8.855 0-4.494-.604-8.674-1.812-12.54-1.208-3.865-2.844-7.221-4.906-10.068-2.063-2.846-4.48-5.079-7.249-6.697-2.77-1.618-5.687-2.427-8.751-2.427zM54.496 46.25l-22.39 47.257h44.147L54.496 46.251zm800.388 7.039c-2.791 0-5.462.629-8.01 1.887-2.55 1.259-4.825 3.008-6.828 5.248-2.003 2.241-3.656 4.896-4.961 7.965-1.232 2.899-1.991 6.016-2.276 9.353l-.045.591 46.153.092c0-3.56-.622-6.875-1.866-9.944-1.245-3.07-2.959-5.724-5.144-7.964a24.316 24.316 0 0 0-7.646-5.295c-2.913-1.289-6.039-1.933-9.377-1.933z" mask="url(#c)" opacity=".7"/>
    </g>
</svg>
